%!PS-Adobe-3.0 EPSF-3.0
%%Creator: cairo 1.14.2 (http://cairographics.org)
%%CreationDate: Tue May 10 09:25:53 2016
%%Pages: 1
%%DocumentData: Clean7Bit
%%LanguageLevel: 2
%%BoundingBox: 0 -1 47 47
%%EndComments
%%BeginProlog
save
50 dict begin
/q { gsave } bind def
/Q { grestore } bind def
/cm { 6 array astore concat } bind def
/w { setlinewidth } bind def
/J { setlinecap } bind def
/j { setlinejoin } bind def
/M { setmiterlimit } bind def
/d { setdash } bind def
/m { moveto } bind def
/l { lineto } bind def
/c { curveto } bind def
/h { closepath } bind def
/re { exch dup neg 3 1 roll 5 3 roll moveto 0 rlineto
      0 exch rlineto 0 rlineto closepath } bind def
/S { stroke } bind def
/f { fill } bind def
/f* { eofill } bind def
/n { newpath } bind def
/W { clip } bind def
/W* { eoclip } bind def
/BT { } bind def
/ET { } bind def
/pdfmark where { pop globaldict /?pdfmark /exec load put }
    { globaldict begin /?pdfmark /pop load def /pdfmark
    /cleartomark load def end } ifelse
/BDC { mark 3 1 roll /BDC pdfmark } bind def
/EMC { mark /EMC pdfmark } bind def
/cairo_store_point { /cairo_point_y exch def /cairo_point_x exch def } def
/Tj { show currentpoint cairo_store_point } bind def
/TJ {
  {
    dup
    type /stringtype eq
    { show } { -0.001 mul 0 cairo_font_matrix dtransform rmoveto } ifelse
  } forall
  currentpoint cairo_store_point
} bind def
/cairo_selectfont { cairo_font_matrix aload pop pop pop 0 0 6 array astore
    cairo_font exch selectfont cairo_point_x cairo_point_y moveto } bind def
/Tf { pop /cairo_font exch def /cairo_font_matrix where
      { pop cairo_selectfont } if } bind def
/Td { matrix translate cairo_font_matrix matrix concatmatrix dup
      /cairo_font_matrix exch def dup 4 get exch 5 get cairo_store_point
      /cairo_font where { pop cairo_selectfont } if } bind def
/Tm { 2 copy 8 2 roll 6 array astore /cairo_font_matrix exch def
      cairo_store_point /cairo_font where { pop cairo_selectfont } if } bind def
/g { setgray } bind def
/rg { setrgbcolor } bind def
/d1 { setcachedevice } bind def
%%EndProlog
%%BeginSetup
%%EndSetup
%%Page: 1 1
%%BeginPageSetup
%%PageBoundingBox: 0 -1 47 47
%%EndPageSetup
q 0 -1 47 48 rectclip q
0.913725 0.792157 0.545098 rg
12.039 0.8 m 2.438 0.8 l 2.438 16.8 l 2.438 19.453 4.586 23.999 7.238 23.999
 c 9.891 23.999 12.039 19.453 12.039 16.8 c h
12.039 0.8 m f
0.945098 0.866667 0.717647 rg
2.438 14.402 9.602 -10.402 re f
0.941176 0.768627 0.0980392 rg
1.6 w
1 J
0 j
[] 0.0 d
10 M q 1 0 0 -1 0 46.401756 cm
0.84 45.602 m 13.637 45.602 l S Q
0.913725 0.792157 0.545098 rg
28.039 0.8 m 18.438 0.8 l 18.438 16.8 l 18.438 19.453 20.586 23.999 23.238
 23.999 c 25.891 23.999 28.039 19.453 28.039 16.8 c h
28.039 0.8 m f
0.945098 0.866667 0.717647 rg
18.438 14.402 9.602 -10.402 re f
0.941176 0.768627 0.0980392 rg
q 1 0 0 -1 0 46.401756 cm
16.84 45.602 m 29.637 45.602 l S Q
0.913725 0.792157 0.545098 rg
44.039 0.8 m 34.438 0.8 l 34.438 16.8 l 34.438 19.453 36.586 23.999 39.238
 23.999 c 41.891 23.999 44.039 19.453 44.039 16.8 c h
44.039 0.8 m f
0.945098 0.866667 0.717647 rg
34.438 14.402 9.602 -10.402 re f
0.941176 0.768627 0.0980392 rg
q 1 0 0 -1 0 46.401756 cm
32.84 45.602 m 45.637 45.602 l S Q
0.913725 0.792157 0.545098 rg
10.438 45.601 m 20.039 45.601 l 20.039 29.601 l 20.039 26.949 17.891 22.402
 15.238 22.402 c 12.586 22.402 10.438 26.949 10.438 29.601 c h
10.438 45.601 m f
0.945098 0.866667 0.717647 rg
10.438 42.402 9.602 -10.402 re f
0.941176 0.768627 0.0980392 rg
q 1 0 0 -1 0 46.401756 cm
21.637 0.801 m 8.84 0.801 l S Q
0.913725 0.792157 0.545098 rg
26.438 45.601 m 36.039 45.601 l 36.039 29.601 l 36.039 26.949 33.891 22.402
 31.238 22.402 c 28.586 22.402 26.438 26.949 26.438 29.601 c h
26.438 45.601 m f
0.945098 0.866667 0.717647 rg
26.438 42.402 9.602 -10.402 re f
0.941176 0.768627 0.0980392 rg
q 1 0 0 -1 0 46.401756 cm
37.637 0.801 m 24.84 0.801 l S Q
Q Q
showpage
%%Trailer
end restore
%%EOF
