%!PS-Adobe-3.0 EPSF-3.0
%%Creator: cairo 1.14.2 (http://cairographics.org)
%%CreationDate: Mon Aug  1 15:56:39 2016
%%Pages: 1
%%DocumentData: Clean7Bit
%%LanguageLevel: 2
%%BoundingBox: 0 -1 142 410
%%EndComments
%%BeginProlog
save
50 dict begin
/q { gsave } bind def
/Q { grestore } bind def
/cm { 6 array astore concat } bind def
/w { setlinewidth } bind def
/J { setlinecap } bind def
/j { setlinejoin } bind def
/M { setmiterlimit } bind def
/d { setdash } bind def
/m { moveto } bind def
/l { lineto } bind def
/c { curveto } bind def
/h { closepath } bind def
/re { exch dup neg 3 1 roll 5 3 roll moveto 0 rlineto
      0 exch rlineto 0 rlineto closepath } bind def
/S { stroke } bind def
/f { fill } bind def
/f* { eofill } bind def
/n { newpath } bind def
/W { clip } bind def
/W* { eoclip } bind def
/BT { } bind def
/ET { } bind def
/pdfmark where { pop globaldict /?pdfmark /exec load put }
    { globaldict begin /?pdfmark /pop load def /pdfmark
    /cleartomark load def end } ifelse
/BDC { mark 3 1 roll /BDC pdfmark } bind def
/EMC { mark /EMC pdfmark } bind def
/cairo_store_point { /cairo_point_y exch def /cairo_point_x exch def } def
/Tj { show currentpoint cairo_store_point } bind def
/TJ {
  {
    dup
    type /stringtype eq
    { show } { -0.001 mul 0 cairo_font_matrix dtransform rmoveto } ifelse
  } forall
  currentpoint cairo_store_point
} bind def
/cairo_selectfont { cairo_font_matrix aload pop pop pop 0 0 6 array astore
    cairo_font exch selectfont cairo_point_x cairo_point_y moveto } bind def
/Tf { pop /cairo_font exch def /cairo_font_matrix where
      { pop cairo_selectfont } if } bind def
/Td { matrix translate cairo_font_matrix matrix concatmatrix dup
      /cairo_font_matrix exch def dup 4 get exch 5 get cairo_store_point
      /cairo_font where { pop cairo_selectfont } if } bind def
/Tm { 2 copy 8 2 roll 6 array astore /cairo_font_matrix exch def
      cairo_store_point /cairo_font where { pop cairo_selectfont } if } bind def
/g { setgray } bind def
/rg { setrgbcolor } bind def
/d1 { setcachedevice } bind def
%%EndProlog
%%BeginSetup
%%EndSetup
%%Page: 1 1
%%BeginPageSetup
%%PageBoundingBox: 0 -1 142 410
%%EndPageSetup
q 0 -1 142 411 rectclip q
1 0.764706 0.431373 rg
127.039 268.358 m 127.09 270.698 127.117 273.053 127.117 275.42 c 127.117
 349.526 101.824 409.6 70.621 409.6 c 39.418 409.6 14.125 349.526 14.125
 275.42 c 14.125 273.053 14.152 270.698 14.203 268.358 c h
127.039 268.358 m f
1 0.843137 0.509804 rg
141.242 42.373 m 0 42.373 l 0 196.94 l 0 211.58 0.91 226.209 2.727 240.737
 c 6.289 269.233 l 6.73 272.768 9.734 275.42 13.297 275.42 c 127.945 275.42
 l 131.504 275.42 134.508 272.768 134.953 269.233 c 138.512 240.737 l 140.328
 226.209 141.238 211.58 141.238 196.94 c 141.238 42.373 l h
141.242 42.373 m f
134.18 -0.002 m 7.062 -0.002 l 3.164 -0.002 0 3.163 0 7.061 c 0 10.963 
3.164 14.123 7.062 14.123 c 134.18 14.123 l 138.078 14.123 141.242 10.963
 141.242 7.061 c 141.242 3.163 138.078 -0.002 134.18 -0.002 c h
134.18 -0.002 m f
1 0.764706 0.431373 rg
14.125 28.248 112.992 -14.125 re f
0.960784 0.705882 0.392157 rg
70.621 42.373 m 0 42.373 l 14.125 28.248 l 127.117 28.248 l 141.242 42.373
 l h
70.621 42.373 m f
14.441 289.545 m 14.238 284.901 14.125 280.194 14.125 275.42 c 127.117 
275.42 l 127.117 280.194 127.004 284.901 126.801 289.545 c h
14.441 289.545 m f
Q Q
showpage
%%Trailer
end restore
%%EOF
