%!PS-Adobe-3.0 EPSF-3.0
%%Creator: cairo 1.14.2 (http://cairographics.org)
%%CreationDate: Wed Apr 13 12:24:55 2016
%%Pages: 1
%%DocumentData: Clean7Bit
%%LanguageLevel: 2
%%BoundingBox: 0 0 214 376
%%EndComments
%%BeginProlog
save
50 dict begin
/q { gsave } bind def
/Q { grestore } bind def
/cm { 6 array astore concat } bind def
/w { setlinewidth } bind def
/J { setlinecap } bind def
/j { setlinejoin } bind def
/M { setmiterlimit } bind def
/d { setdash } bind def
/m { moveto } bind def
/l { lineto } bind def
/c { curveto } bind def
/h { closepath } bind def
/re { exch dup neg 3 1 roll 5 3 roll moveto 0 rlineto
      0 exch rlineto 0 rlineto closepath } bind def
/S { stroke } bind def
/f { fill } bind def
/f* { eofill } bind def
/n { newpath } bind def
/W { clip } bind def
/W* { eoclip } bind def
/BT { } bind def
/ET { } bind def
/pdfmark where { pop globaldict /?pdfmark /exec load put }
    { globaldict begin /?pdfmark /pop load def /pdfmark
    /cleartomark load def end } ifelse
/BDC { mark 3 1 roll /BDC pdfmark } bind def
/EMC { mark /EMC pdfmark } bind def
/cairo_store_point { /cairo_point_y exch def /cairo_point_x exch def } def
/Tj { show currentpoint cairo_store_point } bind def
/TJ {
  {
    dup
    type /stringtype eq
    { show } { -0.001 mul 0 cairo_font_matrix dtransform rmoveto } ifelse
  } forall
  currentpoint cairo_store_point
} bind def
/cairo_selectfont { cairo_font_matrix aload pop pop pop 0 0 6 array astore
    cairo_font exch selectfont cairo_point_x cairo_point_y moveto } bind def
/Tf { pop /cairo_font exch def /cairo_font_matrix where
      { pop cairo_selectfont } if } bind def
/Td { matrix translate cairo_font_matrix matrix concatmatrix dup
      /cairo_font_matrix exch def dup 4 get exch 5 get cairo_store_point
      /cairo_font where { pop cairo_selectfont } if } bind def
/Tm { 2 copy 8 2 roll 6 array astore /cairo_font_matrix exch def
      cairo_store_point /cairo_font where { pop cairo_selectfont } if } bind def
/g { setgray } bind def
/rg { setrgbcolor } bind def
/d1 { setcachedevice } bind def
%%EndProlog
%%BeginSetup
%%EndSetup
%%Page: 1 1
%%BeginPageSetup
%%PageBoundingBox: 0 0 214 376
%%EndPageSetup
q 0 0 214 376 rectclip q
0.427451 0.380392 0.184314 rg
78.895 364 55.562 -46.496 re f
0.960784 0.607843 0.270588 rg
12.949 179.758 m 17.949 54.828 l 195.402 54.828 l 200.402 179.758 l h
140.543 134.492 m 138.555 137.145 139.094 140.906 141.742 142.895 c 144.391
 144.883 148.156 144.344 150.141 141.695 c 160.941 127.293 l 171.742 141.695
 l 173.73 144.344 177.492 144.883 180.145 142.895 c 182.793 140.906 183.332
 137.145 181.344 134.492 c 168.441 117.293 l 181.344 100.094 l 183.332 97.441
 182.793 93.68 180.145 91.695 c 179.066 90.883 177.801 90.492 176.551 90.492
 c 174.727 90.492 172.922 91.324 171.742 92.895 c 160.941 107.293 l 150.141
 92.895 l 148.965 91.324 147.16 90.492 145.336 90.492 c 144.086 90.492 142.82
 90.883 141.742 91.695 c 139.094 93.68 138.555 97.441 140.543 100.094 c 
153.441 117.293 l h
86.273 134.492 m 84.285 137.145 84.824 140.906 87.473 142.895 c 90.125 
144.883 93.887 144.344 95.875 141.695 c 106.676 127.293 l 117.477 141.695
 l 119.465 144.344 123.227 144.883 125.875 142.895 c 128.527 140.906 129.066
 137.145 127.078 134.496 c 114.176 117.293 l 127.078 100.094 l 129.066 97.445
 128.527 93.684 125.875 91.695 c 124.797 90.887 123.535 90.496 122.281 90.496
 c 120.457 90.496 118.656 91.324 117.477 92.895 c 106.676 107.293 l 95.875
 92.895 l 94.695 91.324 92.895 90.492 91.07 90.492 c 89.816 90.492 88.555
 90.883 87.477 91.695 c 84.824 93.68 84.289 97.441 86.273 100.094 c 99.176
 117.293 l h
32.008 134.492 m 30.02 137.145 30.555 140.906 33.207 142.895 c 35.855 144.883
 39.617 144.344 41.605 141.695 c 52.406 127.293 l 63.207 141.695 l 65.195
 144.344 68.957 144.883 71.609 142.895 c 74.258 140.906 74.797 137.145 72.809
 134.492 c 59.906 117.293 l 72.809 100.094 l 74.797 97.441 74.258 93.68 
71.609 91.695 c 70.527 90.883 69.266 90.492 68.012 90.492 c 66.188 90.492
 64.387 91.324 63.207 92.895 c 52.406 107.293 l 41.605 92.895 l 40.426 91.324
 38.625 90.492 36.801 90.492 c 35.551 90.492 34.285 90.883 33.207 91.695
 c 30.555 93.68 30.02 97.441 32.008 100.094 c 44.906 117.293 l h
32.008 134.492 m f
0.811765 0.333333 0.188235 rg
194.484 31.93 m 194.922 42.832 l 18.43 42.832 l 18.867 31.93 l 19.309 20.941
 28.613 12 39.609 12 c 173.742 12 l 184.738 12 194.043 20.941 194.484 31.93
 c h
194.484 31.93 m f
12.012 203.137 m 12.469 191.758 l 24.477 191.758 l 24.008 203.445 l 23.996
 203.738 24.008 204.031 24.039 204.324 c 24.355 207.297 26.621 211.621 28.887
 213.574 c 29.109 213.766 29.344 213.938 29.59 214.094 c 82.398 247.586 
l 85.195 249.359 88.902 248.531 90.68 245.734 c 92.453 242.934 91.625 239.227
 88.824 237.453 c 36.738 204.418 l 36.496 204.047 36.203 203.488 36.035 
203.078 c 36.488 191.758 l 200.883 191.758 l 201.34 203.141 l 201.633 210.422
 196.488 220.234 190.332 224.137 c 137.242 257.809 l 135.508 258.906 134.457
 260.82 134.457 262.875 c 134.457 305.504 l 78.895 305.504 l 78.895 262.875
 l 78.895 260.82 77.844 258.906 76.109 257.809 c 23.02 224.137 l 16.863 
220.234 11.719 210.422 12.012 203.137 c h
90.895 287.504 m 90.895 290.816 93.578 293.504 96.895 293.504 c 100.207
 293.504 102.895 290.816 102.895 287.504 c 102.895 263.754 l 102.895 260.438
 100.207 257.754 96.895 257.754 c 93.578 257.754 90.895 260.438 90.895 263.754
 c h
90.895 287.504 m f
0.203922 0.0823529 0.0470588 rg
196.758 234.27 m 146.457 266.176 l 146.457 305.625 l 149.195 306.18 151.258
 308.602 151.258 311.504 c 151.258 314.406 149.195 316.828 146.457 317.383
 c 146.457 370 l 146.457 373.312 143.77 376 140.457 376 c 72.895 376 l 69.578
 376 66.895 373.312 66.895 370 c 66.895 317.383 l 64.156 316.828 62.094 
314.406 62.094 311.504 c 62.094 308.602 64.156 306.18 66.895 305.625 c 66.895
 266.176 l 16.59 234.27 l 6.836 228.086 -0.441 214.199 0.02 202.656 c 6.875
 31.449 l 7.57 14.109 22.254 0 39.609 0 c 173.742 0 l 191.094 0 205.781 
14.109 206.477 31.449 c 213.332 202.656 l 213.793 214.199 206.516 228.086
 196.758 234.27 c h
18.867 31.93 m 18.43 42.832 l 194.922 42.832 l 194.484 31.93 l 194.043 
20.941 184.738 12 173.742 12 c 39.609 12 l 28.613 12 19.309 20.941 18.867
 31.93 c h
134.457 364 m 134.457 317.504 l 78.895 317.504 l 78.895 364 l h
76.105 257.809 m 77.844 258.906 78.895 260.82 78.895 262.875 c 78.895 305.504
 l 134.457 305.504 l 134.457 262.875 l 134.457 260.82 135.508 258.906 137.242
 257.809 c 190.332 224.137 l 196.488 220.234 201.633 210.422 201.34 203.137
 c 200.883 191.758 l 12.469 191.758 l 12.012 203.137 l 11.719 210.422 16.863
 220.234 23.02 224.137 c h
195.402 54.828 m 17.949 54.828 l 12.949 179.758 l 200.402 179.758 l h
195.402 54.828 m f
1 g
96.895 257.754 m 100.207 257.754 102.895 260.438 102.895 263.754 c 102.895
 287.504 l 102.895 290.816 100.207 293.504 96.895 293.504 c 93.578 293.504
 90.895 290.816 90.895 287.504 c 90.895 263.754 l 90.895 260.438 93.578 
257.754 96.895 257.754 c h
96.895 257.754 m f
36.738 204.418 m 88.824 237.453 l 91.621 239.227 92.449 242.934 90.676 
245.734 c 88.898 248.531 85.191 249.359 82.395 247.586 c 29.59 214.094 l
 29.34 213.938 29.105 213.762 28.883 213.57 c 26.621 211.621 24.355 207.297
 24.035 204.324 c 24.004 204.031 23.996 203.738 24.008 203.445 c 24.477 
191.758 l 36.484 191.758 l 36.031 203.074 l 36.199 203.484 36.496 204.047
 36.738 204.418 c h
36.738 204.418 m f
0.203922 0.0823529 0.0470588 rg
33.207 91.695 m 34.285 90.883 35.551 90.492 36.801 90.492 c 38.625 90.492
 40.426 91.324 41.605 92.895 c 52.406 107.293 l 63.207 92.895 l 64.387 91.32
 66.188 90.492 68.012 90.492 c 69.266 90.492 70.531 90.887 71.609 91.695
 c 74.258 93.68 74.797 97.441 72.809 100.094 c 59.906 117.293 l 72.809 134.492
 l 74.797 137.145 74.258 140.906 71.609 142.895 c 68.957 144.883 65.195 
144.344 63.207 141.695 c 52.406 127.293 l 41.605 141.695 l 39.617 144.344
 35.855 144.883 33.207 142.895 c 30.555 140.906 30.02 137.145 32.008 134.492
 c 44.906 117.293 l 32.008 100.094 l 30.02 97.441 30.555 93.684 33.207 91.695
 c h
33.207 91.695 m f
87.473 91.695 m 88.555 90.883 89.816 90.492 91.07 90.492 c 92.895 90.492
 94.695 91.324 95.875 92.895 c 106.676 107.293 l 117.477 92.895 l 118.656
 91.32 120.457 90.492 122.281 90.492 c 123.535 90.492 124.797 90.887 125.875
 91.695 c 128.527 93.68 129.066 97.441 127.078 100.094 c 114.176 117.293
 l 127.078 134.492 l 129.066 137.145 128.527 140.906 125.875 142.895 c 123.227
 144.883 119.465 144.344 117.477 141.695 c 106.676 127.293 l 95.875 141.695
 l 93.887 144.344 90.125 144.883 87.477 142.895 c 84.824 140.906 84.289 
137.145 86.273 134.496 c 99.176 117.293 l 86.273 100.094 l 84.285 97.441
 84.824 93.684 87.473 91.695 c h
87.473 91.695 m f
141.742 91.695 m 142.824 90.883 144.086 90.492 145.336 90.492 c 147.16 
90.492 148.965 91.324 150.141 92.895 c 160.941 107.293 l 171.742 92.895 
l 172.922 91.32 174.727 90.492 176.551 90.492 c 177.801 90.492 179.066 90.887
 180.145 91.695 c 182.793 93.68 183.332 97.441 181.344 100.094 c 168.441
 117.293 l 181.344 134.492 l 183.332 137.145 182.793 140.906 180.145 142.895
 c 177.492 144.883 173.73 144.344 171.742 141.695 c 160.941 127.293 l 150.141
 141.695 l 148.156 144.344 144.391 144.883 141.742 142.895 c 139.094 140.906
 138.555 137.145 140.543 134.492 c 153.441 117.293 l 140.543 100.094 l 138.555
 97.441 139.094 93.684 141.742 91.695 c h
141.742 91.695 m f
Q Q
showpage
%%Trailer
end restore
%%EOF
